{
  "color": {
    "red": {
      "0": {
        "$value": "#d93760",
        "$type": "color"
      }
    },
    "green": {
      "0": {
        "$value": "#37d978",
        "$type": "color"
      },
      "1": {
        "$value": "#055124",
        "$type": "color"
      }
    },
    "blue": {
      "0": {
        "$value": "#374dd9",
        "$type": "color"
      },
      "1": {
        "$value": "#061037",
        "$type": "color"
      }
    },
    "action": {
      "surface": {
        "primary": {
          "$value": "{color.green.0}",
          "$type": "color"
        }
      },
      "border": {
        "primary": {
          "$value": "{color.green.1}",
          "$type": "color"
        }
      }
    }
  },
  "brand": {
    "color-heading-text": {
      "$value": "#ff00ff",
      "$type": "color"
    },
    "component-sidebyside-text": {
      "$value": "{brand-color-heading-text}",
      "$type": "color"
    }
  }
}
